^C:\USERS\DAVID\DESKTOP\REPO3D\ZBORAVION3D\ZBORAVION3D\MAIN.CPP
/c /IC:\USERS\DAVID\DESKTOP\REPO3D\EXTERN\ASSIMP\INCLUDE /IC:\USERS\DAVID\DESKTOP\REPO3D\EXTERN\FREEGLUT\INCLUDE /IC:\USERS\DAVID\DESKTOP\REPO3D\EXTERN\GLFW\INCLUDE /IC:\USERS\DAVID\DESKTOP\REPO3D\EXTERN /IC:\USERS\DAVID\DESKTOP\REPO3D\EXTERN\GLEW\INCLUDE /IC:\USERS\DAVID\DESKTOP\REPO3D\EXTERN\STB /IC:\USERS\DAVID\DESKTOP\REPO3D\EXTERN\GLAD\INCLUDE /ZI /JMC /nologo /W3 /WX- /diagnostics:column /sdl /Od /D _DEBUG /D _WINDOWS /D _UNICODE /D UNICODE /Gm- /EHsc /RTC1 /MDd /GS /fp:precise /permissive- /Zc:wchar_t /Zc:forScope /Zc:inline /Fo"X64\DEBUG\\" /Fd"X64\DEBUG\VC142.PDB" /Gd /TP /FC C:\USERS\DAVID\DESKTOP\REPO3D\ZBORAVION3D\ZBORAVION3D\MAIN.CPP
^C:\USERS\USER\ONEDRIVE\DOCUMENTS\REPO\SOLUTION\ZBORAVION3D\ZBORAVION3D\GLAD.C
/c /I..\..\..\EXTERN\ASSIMP\INCLUDE /I..\..\..\EXTERN\FREEGLUT\INCLUDE /I..\..\..\EXTERN\GLFW\INCLUDE /I..\..\..\EXTERN /I..\..\..\EXTERN\GLEW\INCLUDE /I..\..\..\EXTERN\STB /I..\..\..\EXTERN\GLAD\INCLUDE /ZI /JMC /nologo /W3 /WX- /diagnostics:column /sdl /Od /D _DEBUG /D _WINDOWS /D _UNICODE /D UNICODE /Gm- /EHsc /RTC1 /MDd /GS /fp:precise /permissive- /Zc:wchar_t /Zc:forScope /Zc:inline /Fo"X64\DEBUG\\" /Fd"X64\DEBUG\VC142.PDB" /Gd /TC /FC C:\USERS\USER\ONEDRIVE\DOCUMENTS\REPO\SOLUTION\ZBORAVION3D\ZBORAVION3D\GLAD.C
^C:\USERS\USER\ONEDRIVE\DOCUMENTS\REPO\SOLUTION\ZBORAVION3D\ZBORAVION3D\MAIN.CPP
/c /I..\..\..\EXTERN\ASSIMP\INCLUDE /I..\..\..\EXTERN\FREEGLUT\INCLUDE /I..\..\..\EXTERN\GLFW\INCLUDE /I..\..\..\EXTERN /I..\..\..\EXTERN\GLEW\INCLUDE /I..\..\..\EXTERN\STB /I..\..\..\EXTERN\GLAD\INCLUDE /ZI /JMC /nologo /W3 /WX- /diagnostics:column /sdl /Od /D _DEBUG /D _WINDOWS /D _UNICODE /D UNICODE /Gm- /EHsc /RTC1 /MDd /GS /fp:precise /permissive- /Zc:wchar_t /Zc:forScope /Zc:inline /Fo"X64\DEBUG\\" /Fd"X64\DEBUG\VC142.PDB" /Gd /TP /FC C:\USERS\USER\ONEDRIVE\DOCUMENTS\REPO\SOLUTION\ZBORAVION3D\ZBORAVION3D\MAIN.CPP
