^C:\USERS\USER\ONEDRIVE\DOCUMENTS\REPO\SOLUTION\ZBORAVION3D\ZBORAVION3D\GLAD.C
C:\PROGRAM FILES (X86)\MICROSOFT VISUAL STUDIO\2019\COMMUNITY\VC\TOOLS\MSVC\14.23.28105\BIN\HOSTX86\X64\1033\CLUI.DLL
C:\WINDOWS\GLOBALIZATION\SORTING\SORTDEFAULT.NLS
C:\WINDOWS\SYSTEM32\TZRES.DLL
C:\PROGRAM FILES (X86)\WINDOWS KITS\10\INCLUDE\10.0.18362.0\UCRT\STDIO.H
C:\PROGRAM FILES (X86)\WINDOWS KITS\10\INCLUDE\10.0.18362.0\UCRT\CORECRT.H
C:\PROGRAM FILES (X86)\MICROSOFT VISUAL STUDIO\2019\COMMUNITY\VC\TOOLS\MSVC\14.23.28105\INCLUDE\VCRUNTIME.H
C:\PROGRAM FILES (X86)\MICROSOFT VISUAL STUDIO\2019\COMMUNITY\VC\TOOLS\MSVC\14.23.28105\INCLUDE\SAL.H
C:\PROGRAM FILES (X86)\MICROSOFT VISUAL STUDIO\2019\COMMUNITY\VC\TOOLS\MSVC\14.23.28105\INCLUDE\CONCURRENCYSAL.H
C:\PROGRAM FILES (X86)\MICROSOFT VISUAL STUDIO\2019\COMMUNITY\VC\TOOLS\MSVC\14.23.28105\INCLUDE\VADEFS.H
C:\PROGRAM FILES (X86)\WINDOWS KITS\10\INCLUDE\10.0.18362.0\UCRT\CORECRT_WSTDIO.H
C:\PROGRAM FILES (X86)\WINDOWS KITS\10\INCLUDE\10.0.18362.0\UCRT\CORECRT_STDIO_CONFIG.H
C:\PROGRAM FILES (X86)\WINDOWS KITS\10\INCLUDE\10.0.18362.0\UCRT\STDLIB.H
C:\PROGRAM FILES (X86)\WINDOWS KITS\10\INCLUDE\10.0.18362.0\UCRT\CORECRT_MALLOC.H
C:\PROGRAM FILES (X86)\WINDOWS KITS\10\INCLUDE\10.0.18362.0\UCRT\CORECRT_SEARCH.H
C:\PROGRAM FILES (X86)\WINDOWS KITS\10\INCLUDE\10.0.18362.0\UCRT\STDDEF.H
C:\PROGRAM FILES (X86)\WINDOWS KITS\10\INCLUDE\10.0.18362.0\UCRT\CORECRT_WSTDLIB.H
C:\PROGRAM FILES (X86)\MICROSOFT VISUAL STUDIO\2019\COMMUNITY\VC\TOOLS\MSVC\14.23.28105\INCLUDE\LIMITS.H
C:\PROGRAM FILES (X86)\WINDOWS KITS\10\INCLUDE\10.0.18362.0\UCRT\STRING.H
C:\PROGRAM FILES (X86)\WINDOWS KITS\10\INCLUDE\10.0.18362.0\UCRT\CORECRT_MEMORY.H
C:\PROGRAM FILES (X86)\WINDOWS KITS\10\INCLUDE\10.0.18362.0\UCRT\CORECRT_MEMCPY_S.H
C:\PROGRAM FILES (X86)\WINDOWS KITS\10\INCLUDE\10.0.18362.0\UCRT\ERRNO.H
C:\PROGRAM FILES (X86)\MICROSOFT VISUAL STUDIO\2019\COMMUNITY\VC\TOOLS\MSVC\14.23.28105\INCLUDE\VCRUNTIME_STRING.H
C:\PROGRAM FILES (X86)\WINDOWS KITS\10\INCLUDE\10.0.18362.0\UCRT\CORECRT_WSTRING.H
C:\USERS\USER\ONEDRIVE\DOCUMENTS\REPO\EXTERN\GLAD\INCLUDE\GLAD\GLAD.H
C:\PROGRAM FILES (X86)\WINDOWS KITS\10\INCLUDE\10.0.18362.0\UM\WINDOWS.H
C:\PROGRAM FILES (X86)\WINDOWS KITS\10\INCLUDE\10.0.18362.0\SHARED\WINAPIFAMILY.H
C:\PROGRAM FILES (X86)\WINDOWS KITS\10\INCLUDE\10.0.18362.0\SHARED\WINPACKAGEFAMILY.H
C:\PROGRAM FILES (X86)\WINDOWS KITS\10\INCLUDE\10.0.18362.0\SHARED\SDKDDKVER.H
C:\PROGRAM FILES (X86)\MICROSOFT VISUAL STUDIO\2019\COMMUNITY\VC\TOOLS\MSVC\14.23.28105\INCLUDE\EXCPT.H
C:\PROGRAM FILES (X86)\MICROSOFT VISUAL STUDIO\2019\COMMUNITY\VC\TOOLS\MSVC\14.23.28105\INCLUDE\STDARG.H
C:\PROGRAM FILES (X86)\WINDOWS KITS\10\INCLUDE\10.0.18362.0\SHARED\WINDEF.H
C:\PROGRAM FILES (X86)\WINDOWS KITS\10\INCLUDE\10.0.18362.0\SHARED\MINWINDEF.H
C:\PROGRAM FILES (X86)\WINDOWS KITS\10\INCLUDE\10.0.18362.0\SHARED\SPECSTRINGS.H
C:\PROGRAM FILES (X86)\WINDOWS KITS\10\INCLUDE\10.0.18362.0\SHARED\SPECSTRINGS_STRICT.H
C:\PROGRAM FILES (X86)\WINDOWS KITS\10\INCLUDE\10.0.18362.0\SHARED\SPECSTRINGS_UNDEF.H
C:\PROGRAM FILES (X86)\WINDOWS KITS\10\INCLUDE\10.0.18362.0\SHARED\DRIVERSPECS.H
C:\PROGRAM FILES (X86)\WINDOWS KITS\10\INCLUDE\10.0.18362.0\SHARED\SDV_DRIVERSPECS.H
C:\PROGRAM FILES (X86)\WINDOWS KITS\10\INCLUDE\10.0.18362.0\UM\WINNT.H
C:\PROGRAM FILES (X86)\WINDOWS KITS\10\INCLUDE\10.0.18362.0\UCRT\CTYPE.H
C:\PROGRAM FILES (X86)\WINDOWS KITS\10\INCLUDE\10.0.18362.0\UCRT\CORECRT_WCTYPE.H
C:\PROGRAM FILES (X86)\WINDOWS KITS\10\INCLUDE\10.0.18362.0\SHARED\KERNELSPECS.H
C:\PROGRAM FILES (X86)\WINDOWS KITS\10\INCLUDE\10.0.18362.0\SHARED\BASETSD.H
C:\PROGRAM FILES (X86)\WINDOWS KITS\10\INCLUDE\10.0.18362.0\SHARED\GUIDDEF.H
C:\PROGRAM FILES (X86)\WINDOWS KITS\10\INCLUDE\10.0.18362.0\SHARED\PSHPACK4.H
C:\PROGRAM FILES (X86)\WINDOWS KITS\10\INCLUDE\10.0.18362.0\SHARED\POPPACK.H
C:\PROGRAM FILES (X86)\WINDOWS KITS\10\INCLUDE\10.0.18362.0\SHARED\PSHPACK2.H
C:\PROGRAM FILES (X86)\WINDOWS KITS\10\INCLUDE\10.0.18362.0\SHARED\PSHPACK8.H
C:\PROGRAM FILES (X86)\WINDOWS KITS\10\INCLUDE\10.0.18362.0\SHARED\PSHPACK1.H
C:\PROGRAM FILES (X86)\WINDOWS KITS\10\INCLUDE\10.0.18362.0\SHARED\APISET.H
C:\PROGRAM FILES (X86)\WINDOWS KITS\10\INCLUDE\10.0.18362.0\SHARED\KTMTYPES.H
C:\PROGRAM FILES (X86)\WINDOWS KITS\10\INCLUDE\10.0.18362.0\UM\WINBASE.H
C:\PROGRAM FILES (X86)\WINDOWS KITS\10\INCLUDE\10.0.18362.0\SHARED\APISETCCONV.H
C:\PROGRAM FILES (X86)\WINDOWS KITS\10\INCLUDE\10.0.18362.0\UM\MINWINBASE.H
C:\PROGRAM FILES (X86)\WINDOWS KITS\10\INCLUDE\10.0.18362.0\UM\APIQUERY2.H
C:\PROGRAM FILES (X86)\WINDOWS KITS\10\INCLUDE\10.0.18362.0\UM\PROCESSENV.H
C:\PROGRAM FILES (X86)\WINDOWS KITS\10\INCLUDE\10.0.18362.0\UM\FILEAPIFROMAPP.H
C:\PROGRAM FILES (X86)\WINDOWS KITS\10\INCLUDE\10.0.18362.0\UM\FILEAPI.H
C:\PROGRAM FILES (X86)\WINDOWS KITS\10\INCLUDE\10.0.18362.0\UM\DEBUGAPI.H
C:\PROGRAM FILES (X86)\WINDOWS KITS\10\INCLUDE\10.0.18362.0\UM\UTILAPISET.H
C:\PROGRAM FILES (X86)\WINDOWS KITS\10\INCLUDE\10.0.18362.0\UM\HANDLEAPI.H
C:\PROGRAM FILES (X86)\WINDOWS KITS\10\INCLUDE\10.0.18362.0\UM\ERRHANDLINGAPI.H
C:\PROGRAM FILES (X86)\WINDOWS KITS\10\INCLUDE\10.0.18362.0\UM\FIBERSAPI.H
C:\PROGRAM FILES (X86)\WINDOWS KITS\10\INCLUDE\10.0.18362.0\UM\NAMEDPIPEAPI.H
C:\PROGRAM FILES (X86)\WINDOWS KITS\10\INCLUDE\10.0.18362.0\UM\PROFILEAPI.H
C:\PROGRAM FILES (X86)\WINDOWS KITS\10\INCLUDE\10.0.18362.0\UM\HEAPAPI.H
C:\PROGRAM FILES (X86)\WINDOWS KITS\10\INCLUDE\10.0.18362.0\UM\IOAPISET.H
C:\PROGRAM FILES (X86)\WINDOWS KITS\10\INCLUDE\10.0.18362.0\UM\SYNCHAPI.H
C:\PROGRAM FILES (X86)\WINDOWS KITS\10\INCLUDE\10.0.18362.0\UM\INTERLOCKEDAPI.H
C:\PROGRAM FILES (X86)\WINDOWS KITS\10\INCLUDE\10.0.18362.0\UM\PROCESSTHREADSAPI.H
C:\PROGRAM FILES (X86)\WINDOWS KITS\10\INCLUDE\10.0.18362.0\UM\SYSINFOAPI.H
C:\PROGRAM FILES (X86)\WINDOWS KITS\10\INCLUDE\10.0.18362.0\UM\MEMORYAPI.H
C:\PROGRAM FILES (X86)\WINDOWS KITS\10\INCLUDE\10.0.18362.0\UM\ENCLAVEAPI.H
C:\PROGRAM FILES (X86)\WINDOWS KITS\10\INCLUDE\10.0.18362.0\UM\THREADPOOLLEGACYAPISET.H
C:\PROGRAM FILES (X86)\WINDOWS KITS\10\INCLUDE\10.0.18362.0\UM\THREADPOOLAPISET.H
C:\PROGRAM FILES (X86)\WINDOWS KITS\10\INCLUDE\10.0.18362.0\UM\JOBAPI.H
C:\PROGRAM FILES (X86)\WINDOWS KITS\10\INCLUDE\10.0.18362.0\UM\JOBAPI2.H
C:\PROGRAM FILES (X86)\WINDOWS KITS\10\INCLUDE\10.0.18362.0\UM\WOW64APISET.H
C:\PROGRAM FILES (X86)\WINDOWS KITS\10\INCLUDE\10.0.18362.0\UM\LIBLOADERAPI.H
C:\PROGRAM FILES (X86)\WINDOWS KITS\10\INCLUDE\10.0.18362.0\UM\SECURITYBASEAPI.H
C:\PROGRAM FILES (X86)\WINDOWS KITS\10\INCLUDE\10.0.18362.0\UM\NAMESPACEAPI.H
C:\PROGRAM FILES (X86)\WINDOWS KITS\10\INCLUDE\10.0.18362.0\UM\SYSTEMTOPOLOGYAPI.H
C:\PROGRAM FILES (X86)\WINDOWS KITS\10\INCLUDE\10.0.18362.0\UM\PROCESSTOPOLOGYAPI.H
C:\PROGRAM FILES (X86)\WINDOWS KITS\10\INCLUDE\10.0.18362.0\UM\SECURITYAPPCONTAINER.H
C:\PROGRAM FILES (X86)\WINDOWS KITS\10\INCLUDE\10.0.18362.0\UM\REALTIMEAPISET.H
C:\PROGRAM FILES (X86)\WINDOWS KITS\10\INCLUDE\10.0.18362.0\SHARED\WINERROR.H
C:\PROGRAM FILES (X86)\WINDOWS KITS\10\INCLUDE\10.0.18362.0\UM\TIMEZONEAPI.H
C:\PROGRAM FILES (X86)\WINDOWS KITS\10\INCLUDE\10.0.18362.0\UM\WINGDI.H
C:\PROGRAM FILES (X86)\WINDOWS KITS\10\INCLUDE\10.0.18362.0\UM\WINUSER.H
C:\PROGRAM FILES (X86)\WINDOWS KITS\10\INCLUDE\10.0.18362.0\SHARED\TVOUT.H
C:\PROGRAM FILES (X86)\WINDOWS KITS\10\INCLUDE\10.0.18362.0\UM\WINNLS.H
C:\PROGRAM FILES (X86)\WINDOWS KITS\10\INCLUDE\10.0.18362.0\UM\DATETIMEAPI.H
C:\PROGRAM FILES (X86)\WINDOWS KITS\10\INCLUDE\10.0.18362.0\UM\STRINGAPISET.H
C:\PROGRAM FILES (X86)\WINDOWS KITS\10\INCLUDE\10.0.18362.0\UM\WINCON.H
C:\PROGRAM FILES (X86)\WINDOWS KITS\10\INCLUDE\10.0.18362.0\UM\WINCONTYPES.H
C:\PROGRAM FILES (X86)\WINDOWS KITS\10\INCLUDE\10.0.18362.0\UM\CONSOLEAPI.H
C:\PROGRAM FILES (X86)\WINDOWS KITS\10\INCLUDE\10.0.18362.0\UM\CONSOLEAPI2.H
C:\PROGRAM FILES (X86)\WINDOWS KITS\10\INCLUDE\10.0.18362.0\UM\CONSOLEAPI3.H
C:\PROGRAM FILES (X86)\WINDOWS KITS\10\INCLUDE\10.0.18362.0\UM\WINVER.H
C:\PROGRAM FILES (X86)\WINDOWS KITS\10\INCLUDE\10.0.18362.0\UM\VERRSRC.H
C:\PROGRAM FILES (X86)\WINDOWS KITS\10\INCLUDE\10.0.18362.0\UM\WINREG.H
C:\PROGRAM FILES (X86)\WINDOWS KITS\10\INCLUDE\10.0.18362.0\UM\REASON.H
C:\PROGRAM FILES (X86)\WINDOWS KITS\10\INCLUDE\10.0.18362.0\UM\WINNETWK.H
C:\PROGRAM FILES (X86)\WINDOWS KITS\10\INCLUDE\10.0.18362.0\SHARED\WNNC.H
C:\PROGRAM FILES (X86)\WINDOWS KITS\10\INCLUDE\10.0.18362.0\SHARED\STRALIGN.H
C:\PROGRAM FILES (X86)\WINDOWS KITS\10\INCLUDE\10.0.18362.0\UM\WINSVC.H
C:\PROGRAM FILES (X86)\WINDOWS KITS\10\INCLUDE\10.0.18362.0\UM\MCX.H
C:\PROGRAM FILES (X86)\WINDOWS KITS\10\INCLUDE\10.0.18362.0\UM\IMM.H
C:\PROGRAM FILES (X86)\WINDOWS KITS\10\INCLUDE\10.0.18362.0\UM\IME_CMODES.H
C:\USERS\USER\ONEDRIVE\DOCUMENTS\REPO\EXTERN\GLAD\INCLUDE\KHR\KHRPLATFORM.H
^C:\USERS\USER\ONEDRIVE\DOCUMENTS\REPO\SOLUTION\ZBORAVION3D\ZBORAVION3D\MAIN.CPP
C:\PROGRAM FILES (X86)\MICROSOFT VISUAL STUDIO\2019\COMMUNITY\VC\TOOLS\MSVC\14.23.28105\BIN\HOSTX86\X64\1033\CLUI.DLL
C:\WINDOWS\GLOBALIZATION\SORTING\SORTDEFAULT.NLS
C:\WINDOWS\SYSTEM32\TZRES.DLL
C:\USERS\USER\ONEDRIVE\DOCUMENTS\REPO\EXTERN\GLAD\INCLUDE\GLAD\GLAD.H
C:\PROGRAM FILES (X86)\WINDOWS KITS\10\INCLUDE\10.0.18362.0\UM\WINDOWS.H
C:\PROGRAM FILES (X86)\WINDOWS KITS\10\INCLUDE\10.0.18362.0\SHARED\WINAPIFAMILY.H
C:\PROGRAM FILES (X86)\WINDOWS KITS\10\INCLUDE\10.0.18362.0\SHARED\WINPACKAGEFAMILY.H
C:\PROGRAM FILES (X86)\WINDOWS KITS\10\INCLUDE\10.0.18362.0\SHARED\SDKDDKVER.H
C:\PROGRAM FILES (X86)\MICROSOFT VISUAL STUDIO\2019\COMMUNITY\VC\TOOLS\MSVC\14.23.28105\INCLUDE\EXCPT.H
C:\PROGRAM FILES (X86)\MICROSOFT VISUAL STUDIO\2019\COMMUNITY\VC\TOOLS\MSVC\14.23.28105\INCLUDE\VCRUNTIME.H
C:\PROGRAM FILES (X86)\MICROSOFT VISUAL STUDIO\2019\COMMUNITY\VC\TOOLS\MSVC\14.23.28105\INCLUDE\SAL.H
C:\PROGRAM FILES (X86)\MICROSOFT VISUAL STUDIO\2019\COMMUNITY\VC\TOOLS\MSVC\14.23.28105\INCLUDE\CONCURRENCYSAL.H
C:\PROGRAM FILES (X86)\MICROSOFT VISUAL STUDIO\2019\COMMUNITY\VC\TOOLS\MSVC\14.23.28105\INCLUDE\VADEFS.H
C:\PROGRAM FILES (X86)\MICROSOFT VISUAL STUDIO\2019\COMMUNITY\VC\TOOLS\MSVC\14.23.28105\INCLUDE\STDARG.H
C:\PROGRAM FILES (X86)\WINDOWS KITS\10\INCLUDE\10.0.18362.0\SHARED\WINDEF.H
C:\PROGRAM FILES (X86)\WINDOWS KITS\10\INCLUDE\10.0.18362.0\SHARED\MINWINDEF.H
C:\PROGRAM FILES (X86)\WINDOWS KITS\10\INCLUDE\10.0.18362.0\SHARED\SPECSTRINGS.H
C:\PROGRAM FILES (X86)\WINDOWS KITS\10\INCLUDE\10.0.18362.0\SHARED\SPECSTRINGS_STRICT.H
C:\PROGRAM FILES (X86)\WINDOWS KITS\10\INCLUDE\10.0.18362.0\SHARED\SPECSTRINGS_UNDEF.H
C:\PROGRAM FILES (X86)\WINDOWS KITS\10\INCLUDE\10.0.18362.0\SHARED\DRIVERSPECS.H
C:\PROGRAM FILES (X86)\WINDOWS KITS\10\INCLUDE\10.0.18362.0\SHARED\SDV_DRIVERSPECS.H
C:\PROGRAM FILES (X86)\WINDOWS KITS\10\INCLUDE\10.0.18362.0\UM\WINNT.H
C:\PROGRAM FILES (X86)\WINDOWS KITS\10\INCLUDE\10.0.18362.0\UCRT\CTYPE.H
C:\PROGRAM FILES (X86)\WINDOWS KITS\10\INCLUDE\10.0.18362.0\UCRT\CORECRT.H
C:\PROGRAM FILES (X86)\WINDOWS KITS\10\INCLUDE\10.0.18362.0\UCRT\CORECRT_WCTYPE.H
C:\PROGRAM FILES (X86)\WINDOWS KITS\10\INCLUDE\10.0.18362.0\SHARED\KERNELSPECS.H
C:\PROGRAM FILES (X86)\WINDOWS KITS\10\INCLUDE\10.0.18362.0\SHARED\BASETSD.H
C:\PROGRAM FILES (X86)\WINDOWS KITS\10\INCLUDE\10.0.18362.0\SHARED\GUIDDEF.H
C:\PROGRAM FILES (X86)\WINDOWS KITS\10\INCLUDE\10.0.18362.0\UCRT\STRING.H
C:\PROGRAM FILES (X86)\WINDOWS KITS\10\INCLUDE\10.0.18362.0\UCRT\CORECRT_MEMORY.H
C:\PROGRAM FILES (X86)\WINDOWS KITS\10\INCLUDE\10.0.18362.0\UCRT\CORECRT_MEMCPY_S.H
C:\PROGRAM FILES (X86)\WINDOWS KITS\10\INCLUDE\10.0.18362.0\UCRT\ERRNO.H
C:\PROGRAM FILES (X86)\MICROSOFT VISUAL STUDIO\2019\COMMUNITY\VC\TOOLS\MSVC\14.23.28105\INCLUDE\VCRUNTIME_STRING.H
C:\PROGRAM FILES (X86)\WINDOWS KITS\10\INCLUDE\10.0.18362.0\UCRT\CORECRT_WSTRING.H
C:\PROGRAM FILES (X86)\WINDOWS KITS\10\INCLUDE\10.0.18362.0\SHARED\PSHPACK4.H
C:\PROGRAM FILES (X86)\WINDOWS KITS\10\INCLUDE\10.0.18362.0\SHARED\POPPACK.H
C:\PROGRAM FILES (X86)\WINDOWS KITS\10\INCLUDE\10.0.18362.0\SHARED\PSHPACK2.H
C:\PROGRAM FILES (X86)\WINDOWS KITS\10\INCLUDE\10.0.18362.0\SHARED\PSHPACK8.H
C:\PROGRAM FILES (X86)\WINDOWS KITS\10\INCLUDE\10.0.18362.0\SHARED\PSHPACK1.H
C:\PROGRAM FILES (X86)\WINDOWS KITS\10\INCLUDE\10.0.18362.0\SHARED\APISET.H
C:\PROGRAM FILES (X86)\WINDOWS KITS\10\INCLUDE\10.0.18362.0\SHARED\KTMTYPES.H
C:\PROGRAM FILES (X86)\WINDOWS KITS\10\INCLUDE\10.0.18362.0\UM\WINBASE.H
C:\PROGRAM FILES (X86)\WINDOWS KITS\10\INCLUDE\10.0.18362.0\SHARED\APISETCCONV.H
C:\PROGRAM FILES (X86)\WINDOWS KITS\10\INCLUDE\10.0.18362.0\UM\MINWINBASE.H
C:\PROGRAM FILES (X86)\WINDOWS KITS\10\INCLUDE\10.0.18362.0\UM\APIQUERY2.H
C:\PROGRAM FILES (X86)\WINDOWS KITS\10\INCLUDE\10.0.18362.0\UM\PROCESSENV.H
C:\PROGRAM FILES (X86)\WINDOWS KITS\10\INCLUDE\10.0.18362.0\UM\FILEAPIFROMAPP.H
C:\PROGRAM FILES (X86)\WINDOWS KITS\10\INCLUDE\10.0.18362.0\UM\FILEAPI.H
C:\PROGRAM FILES (X86)\WINDOWS KITS\10\INCLUDE\10.0.18362.0\UM\DEBUGAPI.H
C:\PROGRAM FILES (X86)\WINDOWS KITS\10\INCLUDE\10.0.18362.0\UM\UTILAPISET.H
C:\PROGRAM FILES (X86)\WINDOWS KITS\10\INCLUDE\10.0.18362.0\UM\HANDLEAPI.H
C:\PROGRAM FILES (X86)\WINDOWS KITS\10\INCLUDE\10.0.18362.0\UM\ERRHANDLINGAPI.H
C:\PROGRAM FILES (X86)\WINDOWS KITS\10\INCLUDE\10.0.18362.0\UM\FIBERSAPI.H
C:\PROGRAM FILES (X86)\WINDOWS KITS\10\INCLUDE\10.0.18362.0\UM\NAMEDPIPEAPI.H
C:\PROGRAM FILES (X86)\WINDOWS KITS\10\INCLUDE\10.0.18362.0\UM\PROFILEAPI.H
C:\PROGRAM FILES (X86)\WINDOWS KITS\10\INCLUDE\10.0.18362.0\UM\HEAPAPI.H
C:\PROGRAM FILES (X86)\WINDOWS KITS\10\INCLUDE\10.0.18362.0\UM\IOAPISET.H
C:\PROGRAM FILES (X86)\WINDOWS KITS\10\INCLUDE\10.0.18362.0\UM\SYNCHAPI.H
C:\PROGRAM FILES (X86)\WINDOWS KITS\10\INCLUDE\10.0.18362.0\UM\INTERLOCKEDAPI.H
C:\PROGRAM FILES (X86)\WINDOWS KITS\10\INCLUDE\10.0.18362.0\UM\PROCESSTHREADSAPI.H
C:\PROGRAM FILES (X86)\WINDOWS KITS\10\INCLUDE\10.0.18362.0\UM\SYSINFOAPI.H
C:\PROGRAM FILES (X86)\WINDOWS KITS\10\INCLUDE\10.0.18362.0\UM\MEMORYAPI.H
C:\PROGRAM FILES (X86)\WINDOWS KITS\10\INCLUDE\10.0.18362.0\UM\ENCLAVEAPI.H
C:\PROGRAM FILES (X86)\WINDOWS KITS\10\INCLUDE\10.0.18362.0\UM\THREADPOOLLEGACYAPISET.H
C:\PROGRAM FILES (X86)\WINDOWS KITS\10\INCLUDE\10.0.18362.0\UM\THREADPOOLAPISET.H
C:\PROGRAM FILES (X86)\WINDOWS KITS\10\INCLUDE\10.0.18362.0\UM\JOBAPI.H
C:\PROGRAM FILES (X86)\WINDOWS KITS\10\INCLUDE\10.0.18362.0\UM\JOBAPI2.H
C:\PROGRAM FILES (X86)\WINDOWS KITS\10\INCLUDE\10.0.18362.0\UM\WOW64APISET.H
C:\PROGRAM FILES (X86)\WINDOWS KITS\10\INCLUDE\10.0.18362.0\UM\LIBLOADERAPI.H
C:\PROGRAM FILES (X86)\WINDOWS KITS\10\INCLUDE\10.0.18362.0\UM\SECURITYBASEAPI.H
C:\PROGRAM FILES (X86)\WINDOWS KITS\10\INCLUDE\10.0.18362.0\UM\NAMESPACEAPI.H
C:\PROGRAM FILES (X86)\WINDOWS KITS\10\INCLUDE\10.0.18362.0\UM\SYSTEMTOPOLOGYAPI.H
C:\PROGRAM FILES (X86)\WINDOWS KITS\10\INCLUDE\10.0.18362.0\UM\PROCESSTOPOLOGYAPI.H
C:\PROGRAM FILES (X86)\WINDOWS KITS\10\INCLUDE\10.0.18362.0\UM\SECURITYAPPCONTAINER.H
C:\PROGRAM FILES (X86)\WINDOWS KITS\10\INCLUDE\10.0.18362.0\UM\REALTIMEAPISET.H
C:\PROGRAM FILES (X86)\WINDOWS KITS\10\INCLUDE\10.0.18362.0\SHARED\WINERROR.H
C:\PROGRAM FILES (X86)\WINDOWS KITS\10\INCLUDE\10.0.18362.0\UM\TIMEZONEAPI.H
C:\PROGRAM FILES (X86)\WINDOWS KITS\10\INCLUDE\10.0.18362.0\UM\WINGDI.H
C:\PROGRAM FILES (X86)\WINDOWS KITS\10\INCLUDE\10.0.18362.0\UM\WINUSER.H
C:\PROGRAM FILES (X86)\WINDOWS KITS\10\INCLUDE\10.0.18362.0\SHARED\TVOUT.H
C:\PROGRAM FILES (X86)\WINDOWS KITS\10\INCLUDE\10.0.18362.0\UM\WINNLS.H
C:\PROGRAM FILES (X86)\WINDOWS KITS\10\INCLUDE\10.0.18362.0\UM\DATETIMEAPI.H
C:\PROGRAM FILES (X86)\WINDOWS KITS\10\INCLUDE\10.0.18362.0\UM\STRINGAPISET.H
C:\PROGRAM FILES (X86)\WINDOWS KITS\10\INCLUDE\10.0.18362.0\UM\WINCON.H
C:\PROGRAM FILES (X86)\WINDOWS KITS\10\INCLUDE\10.0.18362.0\UM\WINCONTYPES.H
C:\PROGRAM FILES (X86)\WINDOWS KITS\10\INCLUDE\10.0.18362.0\UM\CONSOLEAPI.H
C:\PROGRAM FILES (X86)\WINDOWS KITS\10\INCLUDE\10.0.18362.0\UM\CONSOLEAPI2.H
C:\PROGRAM FILES (X86)\WINDOWS KITS\10\INCLUDE\10.0.18362.0\UM\CONSOLEAPI3.H
C:\PROGRAM FILES (X86)\WINDOWS KITS\10\INCLUDE\10.0.18362.0\UM\WINVER.H
C:\PROGRAM FILES (X86)\WINDOWS KITS\10\INCLUDE\10.0.18362.0\UM\VERRSRC.H
C:\PROGRAM FILES (X86)\WINDOWS KITS\10\INCLUDE\10.0.18362.0\UM\WINREG.H
C:\PROGRAM FILES (X86)\WINDOWS KITS\10\INCLUDE\10.0.18362.0\UM\REASON.H
C:\PROGRAM FILES (X86)\WINDOWS KITS\10\INCLUDE\10.0.18362.0\UM\WINNETWK.H
C:\PROGRAM FILES (X86)\WINDOWS KITS\10\INCLUDE\10.0.18362.0\SHARED\WNNC.H
C:\PROGRAM FILES (X86)\WINDOWS KITS\10\INCLUDE\10.0.18362.0\SHARED\STRALIGN.H
C:\PROGRAM FILES (X86)\WINDOWS KITS\10\INCLUDE\10.0.18362.0\UM\WINSVC.H
C:\PROGRAM FILES (X86)\WINDOWS KITS\10\INCLUDE\10.0.18362.0\UM\MCX.H
C:\PROGRAM FILES (X86)\WINDOWS KITS\10\INCLUDE\10.0.18362.0\UM\IMM.H
C:\PROGRAM FILES (X86)\WINDOWS KITS\10\INCLUDE\10.0.18362.0\UM\IME_CMODES.H
C:\USERS\USER\ONEDRIVE\DOCUMENTS\REPO\EXTERN\GLAD\INCLUDE\KHR\KHRPLATFORM.H
C:\USERS\USER\ONEDRIVE\DOCUMENTS\REPO\EXTERN\GLFW\INCLUDE\GLFW\GLFW3.H
C:\PROGRAM FILES (X86)\WINDOWS KITS\10\INCLUDE\10.0.18362.0\UCRT\STDDEF.H
C:\PROGRAM FILES (X86)\MICROSOFT VISUAL STUDIO\2019\COMMUNITY\VC\TOOLS\MSVC\14.23.28105\INCLUDE\STDINT.H
C:\PROGRAM FILES (X86)\WINDOWS KITS\10\INCLUDE\10.0.18362.0\UM\GL\GL.H
C:\USERS\USER\ONEDRIVE\DOCUMENTS\REPO\EXTERN\GLM\GLM.HPP
C:\USERS\USER\ONEDRIVE\DOCUMENTS\REPO\EXTERN\GLM\DETAIL\_FIXES.HPP
C:\PROGRAM FILES (X86)\MICROSOFT VISUAL STUDIO\2019\COMMUNITY\VC\TOOLS\MSVC\14.23.28105\INCLUDE\CMATH
C:\PROGRAM FILES (X86)\MICROSOFT VISUAL STUDIO\2019\COMMUNITY\VC\TOOLS\MSVC\14.23.28105\INCLUDE\YVALS.H
C:\PROGRAM FILES (X86)\MICROSOFT VISUAL STUDIO\2019\COMMUNITY\VC\TOOLS\MSVC\14.23.28105\INCLUDE\YVALS_CORE.H
C:\PROGRAM FILES (X86)\MICROSOFT VISUAL STUDIO\2019\COMMUNITY\VC\TOOLS\MSVC\14.23.28105\INCLUDE\CRTDEFS.H
C:\PROGRAM FILES (X86)\MICROSOFT VISUAL STUDIO\2019\COMMUNITY\VC\TOOLS\MSVC\14.23.28105\INCLUDE\XKEYCHECK.H
C:\PROGRAM FILES (X86)\WINDOWS KITS\10\INCLUDE\10.0.18362.0\UCRT\CRTDBG.H
C:\PROGRAM FILES (X86)\MICROSOFT VISUAL STUDIO\2019\COMMUNITY\VC\TOOLS\MSVC\14.23.28105\INCLUDE\VCRUNTIME_NEW_DEBUG.H
C:\PROGRAM FILES (X86)\MICROSOFT VISUAL STUDIO\2019\COMMUNITY\VC\TOOLS\MSVC\14.23.28105\INCLUDE\VCRUNTIME_NEW.H
C:\PROGRAM FILES (X86)\MICROSOFT VISUAL STUDIO\2019\COMMUNITY\VC\TOOLS\MSVC\14.23.28105\INCLUDE\USE_ANSI.H
C:\PROGRAM FILES (X86)\MICROSOFT VISUAL STUDIO\2019\COMMUNITY\VC\TOOLS\MSVC\14.23.28105\INCLUDE\CSTDLIB
C:\PROGRAM FILES (X86)\WINDOWS KITS\10\INCLUDE\10.0.18362.0\UCRT\MATH.H
C:\PROGRAM FILES (X86)\WINDOWS KITS\10\INCLUDE\10.0.18362.0\UCRT\CORECRT_MATH.H
C:\PROGRAM FILES (X86)\WINDOWS KITS\10\INCLUDE\10.0.18362.0\UCRT\STDLIB.H
C:\PROGRAM FILES (X86)\WINDOWS KITS\10\INCLUDE\10.0.18362.0\UCRT\CORECRT_MALLOC.H
C:\PROGRAM FILES (X86)\WINDOWS KITS\10\INCLUDE\10.0.18362.0\UCRT\CORECRT_SEARCH.H
C:\PROGRAM FILES (X86)\WINDOWS KITS\10\INCLUDE\10.0.18362.0\UCRT\CORECRT_WSTDLIB.H
C:\PROGRAM FILES (X86)\MICROSOFT VISUAL STUDIO\2019\COMMUNITY\VC\TOOLS\MSVC\14.23.28105\INCLUDE\LIMITS.H
C:\PROGRAM FILES (X86)\MICROSOFT VISUAL STUDIO\2019\COMMUNITY\VC\TOOLS\MSVC\14.23.28105\INCLUDE\XTGMATH.H
C:\PROGRAM FILES (X86)\MICROSOFT VISUAL STUDIO\2019\COMMUNITY\VC\TOOLS\MSVC\14.23.28105\INCLUDE\XTR1COMMON
C:\USERS\USER\ONEDRIVE\DOCUMENTS\REPO\EXTERN\GLM\DETAIL\SETUP.HPP
C:\PROGRAM FILES (X86)\MICROSOFT VISUAL STUDIO\2019\COMMUNITY\VC\TOOLS\MSVC\14.23.28105\INCLUDE\CASSERT
C:\PROGRAM FILES (X86)\WINDOWS KITS\10\INCLUDE\10.0.18362.0\UCRT\ASSERT.H
C:\PROGRAM FILES (X86)\MICROSOFT VISUAL STUDIO\2019\COMMUNITY\VC\TOOLS\MSVC\14.23.28105\INCLUDE\CSTDDEF
C:\USERS\USER\ONEDRIVE\DOCUMENTS\REPO\EXTERN\GLM\SIMD\PLATFORM.H
C:\PROGRAM FILES (X86)\MICROSOFT VISUAL STUDIO\2019\COMMUNITY\VC\TOOLS\MSVC\14.23.28105\INCLUDE\EMMINTRIN.H
C:\PROGRAM FILES (X86)\MICROSOFT VISUAL STUDIO\2019\COMMUNITY\VC\TOOLS\MSVC\14.23.28105\INCLUDE\XMMINTRIN.H
C:\PROGRAM FILES (X86)\MICROSOFT VISUAL STUDIO\2019\COMMUNITY\VC\TOOLS\MSVC\14.23.28105\INCLUDE\MMINTRIN.H
C:\PROGRAM FILES (X86)\WINDOWS KITS\10\INCLUDE\10.0.18362.0\UCRT\MALLOC.H
C:\PROGRAM FILES (X86)\MICROSOFT VISUAL STUDIO\2019\COMMUNITY\VC\TOOLS\MSVC\14.23.28105\INCLUDE\CSTDINT
C:\PROGRAM FILES (X86)\MICROSOFT VISUAL STUDIO\2019\COMMUNITY\VC\TOOLS\MSVC\14.23.28105\INCLUDE\TYPE_TRAITS
C:\PROGRAM FILES (X86)\MICROSOFT VISUAL STUDIO\2019\COMMUNITY\VC\TOOLS\MSVC\14.23.28105\INCLUDE\XSTDDEF
C:\PROGRAM FILES (X86)\MICROSOFT VISUAL STUDIO\2019\COMMUNITY\VC\TOOLS\MSVC\14.23.28105\INCLUDE\INITIALIZER_LIST
C:\PROGRAM FILES (X86)\MICROSOFT VISUAL STUDIO\2019\COMMUNITY\VC\TOOLS\MSVC\14.23.28105\INCLUDE\CLIMITS
C:\PROGRAM FILES (X86)\MICROSOFT VISUAL STUDIO\2019\COMMUNITY\VC\TOOLS\MSVC\14.23.28105\INCLUDE\CFLOAT
C:\PROGRAM FILES (X86)\WINDOWS KITS\10\INCLUDE\10.0.18362.0\UCRT\FLOAT.H
C:\PROGRAM FILES (X86)\MICROSOFT VISUAL STUDIO\2019\COMMUNITY\VC\TOOLS\MSVC\14.23.28105\INCLUDE\LIMITS
C:\PROGRAM FILES (X86)\MICROSOFT VISUAL STUDIO\2019\COMMUNITY\VC\TOOLS\MSVC\14.23.28105\INCLUDE\CWCHAR
C:\PROGRAM FILES (X86)\MICROSOFT VISUAL STUDIO\2019\COMMUNITY\VC\TOOLS\MSVC\14.23.28105\INCLUDE\CSTDIO
C:\PROGRAM FILES (X86)\WINDOWS KITS\10\INCLUDE\10.0.18362.0\UCRT\STDIO.H
C:\PROGRAM FILES (X86)\WINDOWS KITS\10\INCLUDE\10.0.18362.0\UCRT\CORECRT_WSTDIO.H
C:\PROGRAM FILES (X86)\WINDOWS KITS\10\INCLUDE\10.0.18362.0\UCRT\CORECRT_STDIO_CONFIG.H
C:\PROGRAM FILES (X86)\WINDOWS KITS\10\INCLUDE\10.0.18362.0\UCRT\WCHAR.H
C:\PROGRAM FILES (X86)\WINDOWS KITS\10\INCLUDE\10.0.18362.0\UCRT\CORECRT_WCONIO.H
C:\PROGRAM FILES (X86)\WINDOWS KITS\10\INCLUDE\10.0.18362.0\UCRT\CORECRT_WDIRECT.H
C:\PROGRAM FILES (X86)\WINDOWS KITS\10\INCLUDE\10.0.18362.0\UCRT\CORECRT_WIO.H
C:\PROGRAM FILES (X86)\WINDOWS KITS\10\INCLUDE\10.0.18362.0\UCRT\CORECRT_SHARE.H
C:\PROGRAM FILES (X86)\WINDOWS KITS\10\INCLUDE\10.0.18362.0\UCRT\CORECRT_WPROCESS.H
C:\PROGRAM FILES (X86)\WINDOWS KITS\10\INCLUDE\10.0.18362.0\UCRT\CORECRT_WTIME.H
C:\PROGRAM FILES (X86)\WINDOWS KITS\10\INCLUDE\10.0.18362.0\UCRT\SYS\STAT.H
C:\PROGRAM FILES (X86)\WINDOWS KITS\10\INCLUDE\10.0.18362.0\UCRT\SYS\TYPES.H
C:\USERS\USER\ONEDRIVE\DOCUMENTS\REPO\EXTERN\GLM\FWD.HPP
C:\USERS\USER\ONEDRIVE\DOCUMENTS\REPO\EXTERN\GLM\DETAIL\QUALIFIER.HPP
C:\USERS\USER\ONEDRIVE\DOCUMENTS\REPO\EXTERN\GLM\VEC2.HPP
C:\USERS\USER\ONEDRIVE\DOCUMENTS\REPO\EXTERN\GLM\EXT\VECTOR_BOOL2.HPP
C:\USERS\USER\ONEDRIVE\DOCUMENTS\REPO\EXTERN\GLM\DETAIL\TYPE_VEC2.HPP
C:\USERS\USER\ONEDRIVE\DOCUMENTS\REPO\EXTERN\GLM\DETAIL\TYPE_VEC2.INL
C:\USERS\USER\ONEDRIVE\DOCUMENTS\REPO\EXTERN\GLM\DETAIL\COMPUTE_VECTOR_RELATIONAL.HPP
C:\USERS\USER\ONEDRIVE\DOCUMENTS\REPO\EXTERN\GLM\EXT\VECTOR_BOOL2_PRECISION.HPP
C:\USERS\USER\ONEDRIVE\DOCUMENTS\REPO\EXTERN\GLM\EXT\VECTOR_FLOAT2.HPP
C:\USERS\USER\ONEDRIVE\DOCUMENTS\REPO\EXTERN\GLM\EXT\VECTOR_FLOAT2_PRECISION.HPP
C:\USERS\USER\ONEDRIVE\DOCUMENTS\REPO\EXTERN\GLM\EXT\VECTOR_DOUBLE2.HPP
C:\USERS\USER\ONEDRIVE\DOCUMENTS\REPO\EXTERN\GLM\EXT\VECTOR_DOUBLE2_PRECISION.HPP
C:\USERS\USER\ONEDRIVE\DOCUMENTS\REPO\EXTERN\GLM\EXT\VECTOR_INT2.HPP
C:\USERS\USER\ONEDRIVE\DOCUMENTS\REPO\EXTERN\GLM\EXT\VECTOR_INT2_PRECISION.HPP
C:\USERS\USER\ONEDRIVE\DOCUMENTS\REPO\EXTERN\GLM\EXT\VECTOR_UINT2.HPP
C:\USERS\USER\ONEDRIVE\DOCUMENTS\REPO\EXTERN\GLM\EXT\VECTOR_UINT2_PRECISION.HPP
C:\USERS\USER\ONEDRIVE\DOCUMENTS\REPO\EXTERN\GLM\VEC3.HPP
C:\USERS\USER\ONEDRIVE\DOCUMENTS\REPO\EXTERN\GLM\EXT\VECTOR_BOOL3.HPP
C:\USERS\USER\ONEDRIVE\DOCUMENTS\REPO\EXTERN\GLM\DETAIL\TYPE_VEC3.HPP
C:\USERS\USER\ONEDRIVE\DOCUMENTS\REPO\EXTERN\GLM\DETAIL\TYPE_VEC3.INL
C:\USERS\USER\ONEDRIVE\DOCUMENTS\REPO\EXTERN\GLM\EXT\VECTOR_BOOL3_PRECISION.HPP
C:\USERS\USER\ONEDRIVE\DOCUMENTS\REPO\EXTERN\GLM\EXT\VECTOR_FLOAT3.HPP
C:\USERS\USER\ONEDRIVE\DOCUMENTS\REPO\EXTERN\GLM\EXT\VECTOR_FLOAT3_PRECISION.HPP
C:\USERS\USER\ONEDRIVE\DOCUMENTS\REPO\EXTERN\GLM\EXT\VECTOR_DOUBLE3.HPP
C:\USERS\USER\ONEDRIVE\DOCUMENTS\REPO\EXTERN\GLM\EXT\VECTOR_DOUBLE3_PRECISION.HPP
C:\USERS\USER\ONEDRIVE\DOCUMENTS\REPO\EXTERN\GLM\EXT\VECTOR_INT3.HPP
C:\USERS\USER\ONEDRIVE\DOCUMENTS\REPO\EXTERN\GLM\EXT\VECTOR_INT3_PRECISION.HPP
C:\USERS\USER\ONEDRIVE\DOCUMENTS\REPO\EXTERN\GLM\EXT\VECTOR_UINT3.HPP
C:\USERS\USER\ONEDRIVE\DOCUMENTS\REPO\EXTERN\GLM\EXT\VECTOR_UINT3_PRECISION.HPP
C:\USERS\USER\ONEDRIVE\DOCUMENTS\REPO\EXTERN\GLM\VEC4.HPP
C:\USERS\USER\ONEDRIVE\DOCUMENTS\REPO\EXTERN\GLM\EXT\VECTOR_BOOL4.HPP
C:\USERS\USER\ONEDRIVE\DOCUMENTS\REPO\EXTERN\GLM\DETAIL\TYPE_VEC4.HPP
C:\USERS\USER\ONEDRIVE\DOCUMENTS\REPO\EXTERN\GLM\DETAIL\TYPE_VEC4.INL
C:\USERS\USER\ONEDRIVE\DOCUMENTS\REPO\EXTERN\GLM\DETAIL\TYPE_VEC4_SIMD.INL
C:\USERS\USER\ONEDRIVE\DOCUMENTS\REPO\EXTERN\GLM\EXT\VECTOR_BOOL4_PRECISION.HPP
C:\USERS\USER\ONEDRIVE\DOCUMENTS\REPO\EXTERN\GLM\EXT\VECTOR_FLOAT4.HPP
C:\USERS\USER\ONEDRIVE\DOCUMENTS\REPO\EXTERN\GLM\EXT\VECTOR_FLOAT4_PRECISION.HPP
C:\USERS\USER\ONEDRIVE\DOCUMENTS\REPO\EXTERN\GLM\EXT\VECTOR_DOUBLE4.HPP
C:\USERS\USER\ONEDRIVE\DOCUMENTS\REPO\EXTERN\GLM\EXT\VECTOR_DOUBLE4_PRECISION.HPP
C:\USERS\USER\ONEDRIVE\DOCUMENTS\REPO\EXTERN\GLM\EXT\VECTOR_INT4.HPP
C:\USERS\USER\ONEDRIVE\DOCUMENTS\REPO\EXTERN\GLM\EXT\VECTOR_INT4_PRECISION.HPP
C:\USERS\USER\ONEDRIVE\DOCUMENTS\REPO\EXTERN\GLM\EXT\VECTOR_UINT4.HPP
C:\USERS\USER\ONEDRIVE\DOCUMENTS\REPO\EXTERN\GLM\EXT\VECTOR_UINT4_PRECISION.HPP
C:\USERS\USER\ONEDRIVE\DOCUMENTS\REPO\EXTERN\GLM\MAT2X2.HPP
C:\USERS\USER\ONEDRIVE\DOCUMENTS\REPO\EXTERN\GLM\EXT\MATRIX_DOUBLE2X2.HPP
C:\USERS\USER\ONEDRIVE\DOCUMENTS\REPO\EXTERN\GLM\DETAIL\TYPE_MAT2X2.HPP
C:\USERS\USER\ONEDRIVE\DOCUMENTS\REPO\EXTERN\GLM\DETAIL\TYPE_MAT2X2.INL
C:\USERS\USER\ONEDRIVE\DOCUMENTS\REPO\EXTERN\GLM\MATRIX.HPP
C:\USERS\USER\ONEDRIVE\DOCUMENTS\REPO\EXTERN\GLM\MAT2X3.HPP
C:\USERS\USER\ONEDRIVE\DOCUMENTS\REPO\EXTERN\GLM\EXT\MATRIX_DOUBLE2X3.HPP
C:\USERS\USER\ONEDRIVE\DOCUMENTS\REPO\EXTERN\GLM\DETAIL\TYPE_MAT2X3.HPP
C:\USERS\USER\ONEDRIVE\DOCUMENTS\REPO\EXTERN\GLM\DETAIL\TYPE_MAT2X3.INL
C:\USERS\USER\ONEDRIVE\DOCUMENTS\REPO\EXTERN\GLM\EXT\MATRIX_DOUBLE2X3_PRECISION.HPP
C:\USERS\USER\ONEDRIVE\DOCUMENTS\REPO\EXTERN\GLM\EXT\MATRIX_FLOAT2X3.HPP
C:\USERS\USER\ONEDRIVE\DOCUMENTS\REPO\EXTERN\GLM\EXT\MATRIX_FLOAT2X3_PRECISION.HPP
C:\USERS\USER\ONEDRIVE\DOCUMENTS\REPO\EXTERN\GLM\MAT2X4.HPP
C:\USERS\USER\ONEDRIVE\DOCUMENTS\REPO\EXTERN\GLM\EXT\MATRIX_DOUBLE2X4.HPP
C:\USERS\USER\ONEDRIVE\DOCUMENTS\REPO\EXTERN\GLM\DETAIL\TYPE_MAT2X4.HPP
C:\USERS\USER\ONEDRIVE\DOCUMENTS\REPO\EXTERN\GLM\DETAIL\TYPE_MAT2X4.INL
C:\USERS\USER\ONEDRIVE\DOCUMENTS\REPO\EXTERN\GLM\EXT\MATRIX_DOUBLE2X4_PRECISION.HPP
C:\USERS\USER\ONEDRIVE\DOCUMENTS\REPO\EXTERN\GLM\EXT\MATRIX_FLOAT2X4.HPP
C:\USERS\USER\ONEDRIVE\DOCUMENTS\REPO\EXTERN\GLM\EXT\MATRIX_FLOAT2X4_PRECISION.HPP
C:\USERS\USER\ONEDRIVE\DOCUMENTS\REPO\EXTERN\GLM\MAT3X2.HPP
C:\USERS\USER\ONEDRIVE\DOCUMENTS\REPO\EXTERN\GLM\EXT\MATRIX_DOUBLE3X2.HPP
C:\USERS\USER\ONEDRIVE\DOCUMENTS\REPO\EXTERN\GLM\DETAIL\TYPE_MAT3X2.HPP
C:\USERS\USER\ONEDRIVE\DOCUMENTS\REPO\EXTERN\GLM\DETAIL\TYPE_MAT3X2.INL
C:\USERS\USER\ONEDRIVE\DOCUMENTS\REPO\EXTERN\GLM\EXT\MATRIX_DOUBLE3X2_PRECISION.HPP
C:\USERS\USER\ONEDRIVE\DOCUMENTS\REPO\EXTERN\GLM\EXT\MATRIX_FLOAT3X2.HPP
C:\USERS\USER\ONEDRIVE\DOCUMENTS\REPO\EXTERN\GLM\EXT\MATRIX_FLOAT3X2_PRECISION.HPP
C:\USERS\USER\ONEDRIVE\DOCUMENTS\REPO\EXTERN\GLM\MAT3X3.HPP
C:\USERS\USER\ONEDRIVE\DOCUMENTS\REPO\EXTERN\GLM\EXT\MATRIX_DOUBLE3X3.HPP
C:\USERS\USER\ONEDRIVE\DOCUMENTS\REPO\EXTERN\GLM\DETAIL\TYPE_MAT3X3.HPP
C:\USERS\USER\ONEDRIVE\DOCUMENTS\REPO\EXTERN\GLM\DETAIL\TYPE_MAT3X3.INL
C:\USERS\USER\ONEDRIVE\DOCUMENTS\REPO\EXTERN\GLM\EXT\MATRIX_DOUBLE3X3_PRECISION.HPP
C:\USERS\USER\ONEDRIVE\DOCUMENTS\REPO\EXTERN\GLM\EXT\MATRIX_FLOAT3X3.HPP
C:\USERS\USER\ONEDRIVE\DOCUMENTS\REPO\EXTERN\GLM\EXT\MATRIX_FLOAT3X3_PRECISION.HPP
C:\USERS\USER\ONEDRIVE\DOCUMENTS\REPO\EXTERN\GLM\MAT3X4.HPP
C:\USERS\USER\ONEDRIVE\DOCUMENTS\REPO\EXTERN\GLM\EXT\MATRIX_DOUBLE3X4.HPP
C:\USERS\USER\ONEDRIVE\DOCUMENTS\REPO\EXTERN\GLM\DETAIL\TYPE_MAT3X4.HPP
C:\USERS\USER\ONEDRIVE\DOCUMENTS\REPO\EXTERN\GLM\DETAIL\TYPE_MAT3X4.INL
C:\USERS\USER\ONEDRIVE\DOCUMENTS\REPO\EXTERN\GLM\EXT\MATRIX_DOUBLE3X4_PRECISION.HPP
C:\USERS\USER\ONEDRIVE\DOCUMENTS\REPO\EXTERN\GLM\EXT\MATRIX_FLOAT3X4.HPP
C:\USERS\USER\ONEDRIVE\DOCUMENTS\REPO\EXTERN\GLM\EXT\MATRIX_FLOAT3X4_PRECISION.HPP
C:\USERS\USER\ONEDRIVE\DOCUMENTS\REPO\EXTERN\GLM\MAT4X2.HPP
C:\USERS\USER\ONEDRIVE\DOCUMENTS\REPO\EXTERN\GLM\EXT\MATRIX_DOUBLE4X2.HPP
C:\USERS\USER\ONEDRIVE\DOCUMENTS\REPO\EXTERN\GLM\DETAIL\TYPE_MAT4X2.HPP
C:\USERS\USER\ONEDRIVE\DOCUMENTS\REPO\EXTERN\GLM\DETAIL\TYPE_MAT4X2.INL
C:\USERS\USER\ONEDRIVE\DOCUMENTS\REPO\EXTERN\GLM\EXT\MATRIX_DOUBLE4X2_PRECISION.HPP
C:\USERS\USER\ONEDRIVE\DOCUMENTS\REPO\EXTERN\GLM\EXT\MATRIX_FLOAT4X2.HPP
C:\USERS\USER\ONEDRIVE\DOCUMENTS\REPO\EXTERN\GLM\EXT\MATRIX_FLOAT4X2_PRECISION.HPP
C:\USERS\USER\ONEDRIVE\DOCUMENTS\REPO\EXTERN\GLM\MAT4X3.HPP
C:\USERS\USER\ONEDRIVE\DOCUMENTS\REPO\EXTERN\GLM\EXT\MATRIX_DOUBLE4X3.HPP
C:\USERS\USER\ONEDRIVE\DOCUMENTS\REPO\EXTERN\GLM\DETAIL\TYPE_MAT4X3.HPP
C:\USERS\USER\ONEDRIVE\DOCUMENTS\REPO\EXTERN\GLM\DETAIL\TYPE_MAT4X3.INL
C:\USERS\USER\ONEDRIVE\DOCUMENTS\REPO\EXTERN\GLM\EXT\MATRIX_DOUBLE4X3_PRECISION.HPP
C:\USERS\USER\ONEDRIVE\DOCUMENTS\REPO\EXTERN\GLM\EXT\MATRIX_FLOAT4X3.HPP
C:\USERS\USER\ONEDRIVE\DOCUMENTS\REPO\EXTERN\GLM\EXT\MATRIX_FLOAT4X3_PRECISION.HPP
C:\USERS\USER\ONEDRIVE\DOCUMENTS\REPO\EXTERN\GLM\MAT4X4.HPP
C:\USERS\USER\ONEDRIVE\DOCUMENTS\REPO\EXTERN\GLM\EXT\MATRIX_DOUBLE4X4.HPP
C:\USERS\USER\ONEDRIVE\DOCUMENTS\REPO\EXTERN\GLM\DETAIL\TYPE_MAT4X4.HPP
C:\USERS\USER\ONEDRIVE\DOCUMENTS\REPO\EXTERN\GLM\DETAIL\TYPE_MAT4X4.INL
C:\USERS\USER\ONEDRIVE\DOCUMENTS\REPO\EXTERN\GLM\DETAIL\TYPE_MAT4X4_SIMD.INL
C:\USERS\USER\ONEDRIVE\DOCUMENTS\REPO\EXTERN\GLM\EXT\MATRIX_DOUBLE4X4_PRECISION.HPP
C:\USERS\USER\ONEDRIVE\DOCUMENTS\REPO\EXTERN\GLM\EXT\MATRIX_FLOAT4X4.HPP
C:\USERS\USER\ONEDRIVE\DOCUMENTS\REPO\EXTERN\GLM\EXT\MATRIX_FLOAT4X4_PRECISION.HPP
C:\USERS\USER\ONEDRIVE\DOCUMENTS\REPO\EXTERN\GLM\DETAIL\FUNC_MATRIX.INL
C:\USERS\USER\ONEDRIVE\DOCUMENTS\REPO\EXTERN\GLM\GEOMETRIC.HPP
C:\USERS\USER\ONEDRIVE\DOCUMENTS\REPO\EXTERN\GLM\DETAIL\FUNC_GEOMETRIC.INL
C:\USERS\USER\ONEDRIVE\DOCUMENTS\REPO\EXTERN\GLM\EXPONENTIAL.HPP
C:\USERS\USER\ONEDRIVE\DOCUMENTS\REPO\EXTERN\GLM\DETAIL\TYPE_VEC1.HPP
C:\USERS\USER\ONEDRIVE\DOCUMENTS\REPO\EXTERN\GLM\DETAIL\TYPE_VEC1.INL
C:\USERS\USER\ONEDRIVE\DOCUMENTS\REPO\EXTERN\GLM\DETAIL\FUNC_EXPONENTIAL.INL
C:\USERS\USER\ONEDRIVE\DOCUMENTS\REPO\EXTERN\GLM\VECTOR_RELATIONAL.HPP
C:\USERS\USER\ONEDRIVE\DOCUMENTS\REPO\EXTERN\GLM\DETAIL\FUNC_VECTOR_RELATIONAL.INL
C:\USERS\USER\ONEDRIVE\DOCUMENTS\REPO\EXTERN\GLM\DETAIL\FUNC_VECTOR_RELATIONAL_SIMD.INL
C:\USERS\USER\ONEDRIVE\DOCUMENTS\REPO\EXTERN\GLM\DETAIL\_VECTORIZE.HPP
C:\USERS\USER\ONEDRIVE\DOCUMENTS\REPO\EXTERN\GLM\DETAIL\FUNC_EXPONENTIAL_SIMD.INL
C:\USERS\USER\ONEDRIVE\DOCUMENTS\REPO\EXTERN\GLM\SIMD\EXPONENTIAL.H
C:\USERS\USER\ONEDRIVE\DOCUMENTS\REPO\EXTERN\GLM\COMMON.HPP
C:\USERS\USER\ONEDRIVE\DOCUMENTS\REPO\EXTERN\GLM\DETAIL\FUNC_COMMON.INL
C:\USERS\USER\ONEDRIVE\DOCUMENTS\REPO\EXTERN\GLM\DETAIL\COMPUTE_COMMON.HPP
C:\USERS\USER\ONEDRIVE\DOCUMENTS\REPO\EXTERN\GLM\DETAIL\FUNC_COMMON_SIMD.INL
C:\USERS\USER\ONEDRIVE\DOCUMENTS\REPO\EXTERN\GLM\SIMD\COMMON.H
C:\PROGRAM FILES (X86)\MICROSOFT VISUAL STUDIO\2019\COMMUNITY\VC\TOOLS\MSVC\14.23.28105\INCLUDE\IMMINTRIN.H
C:\PROGRAM FILES (X86)\MICROSOFT VISUAL STUDIO\2019\COMMUNITY\VC\TOOLS\MSVC\14.23.28105\INCLUDE\WMMINTRIN.H
C:\PROGRAM FILES (X86)\MICROSOFT VISUAL STUDIO\2019\COMMUNITY\VC\TOOLS\MSVC\14.23.28105\INCLUDE\NMMINTRIN.H
C:\PROGRAM FILES (X86)\MICROSOFT VISUAL STUDIO\2019\COMMUNITY\VC\TOOLS\MSVC\14.23.28105\INCLUDE\SMMINTRIN.H
C:\PROGRAM FILES (X86)\MICROSOFT VISUAL STUDIO\2019\COMMUNITY\VC\TOOLS\MSVC\14.23.28105\INCLUDE\TMMINTRIN.H
C:\PROGRAM FILES (X86)\MICROSOFT VISUAL STUDIO\2019\COMMUNITY\VC\TOOLS\MSVC\14.23.28105\INCLUDE\PMMINTRIN.H
C:\PROGRAM FILES (X86)\MICROSOFT VISUAL STUDIO\2019\COMMUNITY\VC\TOOLS\MSVC\14.23.28105\INCLUDE\ZMMINTRIN.H
C:\USERS\USER\ONEDRIVE\DOCUMENTS\REPO\EXTERN\GLM\DETAIL\FUNC_GEOMETRIC_SIMD.INL
C:\USERS\USER\ONEDRIVE\DOCUMENTS\REPO\EXTERN\GLM\SIMD\GEOMETRIC.H
C:\USERS\USER\ONEDRIVE\DOCUMENTS\REPO\EXTERN\GLM\DETAIL\FUNC_MATRIX_SIMD.INL
C:\USERS\USER\ONEDRIVE\DOCUMENTS\REPO\EXTERN\GLM\SIMD\MATRIX.H
C:\PROGRAM FILES (X86)\MICROSOFT VISUAL STUDIO\2019\COMMUNITY\VC\TOOLS\MSVC\14.23.28105\INCLUDE\CSTRING
C:\USERS\USER\ONEDRIVE\DOCUMENTS\REPO\EXTERN\GLM\EXT\MATRIX_DOUBLE2X2_PRECISION.HPP
C:\USERS\USER\ONEDRIVE\DOCUMENTS\REPO\EXTERN\GLM\EXT\MATRIX_FLOAT2X2.HPP
C:\USERS\USER\ONEDRIVE\DOCUMENTS\REPO\EXTERN\GLM\EXT\MATRIX_FLOAT2X2_PRECISION.HPP
C:\USERS\USER\ONEDRIVE\DOCUMENTS\REPO\EXTERN\GLM\TRIGONOMETRIC.HPP
C:\USERS\USER\ONEDRIVE\DOCUMENTS\REPO\EXTERN\GLM\DETAIL\FUNC_TRIGONOMETRIC.INL
C:\USERS\USER\ONEDRIVE\DOCUMENTS\REPO\EXTERN\GLM\DETAIL\FUNC_TRIGONOMETRIC_SIMD.INL
C:\USERS\USER\ONEDRIVE\DOCUMENTS\REPO\EXTERN\GLM\PACKING.HPP
C:\USERS\USER\ONEDRIVE\DOCUMENTS\REPO\EXTERN\GLM\DETAIL\FUNC_PACKING.INL
C:\USERS\USER\ONEDRIVE\DOCUMENTS\REPO\EXTERN\GLM\DETAIL\TYPE_HALF.HPP
C:\USERS\USER\ONEDRIVE\DOCUMENTS\REPO\EXTERN\GLM\DETAIL\TYPE_HALF.INL
C:\USERS\USER\ONEDRIVE\DOCUMENTS\REPO\EXTERN\GLM\DETAIL\FUNC_PACKING_SIMD.INL
C:\USERS\USER\ONEDRIVE\DOCUMENTS\REPO\EXTERN\GLM\INTEGER.HPP
C:\USERS\USER\ONEDRIVE\DOCUMENTS\REPO\EXTERN\GLM\DETAIL\FUNC_INTEGER.INL
C:\PROGRAM FILES (X86)\MICROSOFT VISUAL STUDIO\2019\COMMUNITY\VC\TOOLS\MSVC\14.23.28105\INCLUDE\INTRIN.H
C:\PROGRAM FILES (X86)\MICROSOFT VISUAL STUDIO\2019\COMMUNITY\VC\TOOLS\MSVC\14.23.28105\INCLUDE\INTRIN0.H
C:\PROGRAM FILES (X86)\MICROSOFT VISUAL STUDIO\2019\COMMUNITY\VC\TOOLS\MSVC\14.23.28105\INCLUDE\SETJMP.H
C:\PROGRAM FILES (X86)\MICROSOFT VISUAL STUDIO\2019\COMMUNITY\VC\TOOLS\MSVC\14.23.28105\INCLUDE\AMMINTRIN.H
C:\USERS\USER\ONEDRIVE\DOCUMENTS\REPO\EXTERN\GLM\DETAIL\FUNC_INTEGER_SIMD.INL
C:\USERS\USER\ONEDRIVE\DOCUMENTS\REPO\EXTERN\GLM\SIMD\INTEGER.H
C:\USERS\USER\ONEDRIVE\DOCUMENTS\REPO\EXTERN\GLM\GTC\MATRIX_TRANSFORM.HPP
C:\USERS\USER\ONEDRIVE\DOCUMENTS\REPO\EXTERN\GLM\EXT\MATRIX_PROJECTION.HPP
C:\USERS\USER\ONEDRIVE\DOCUMENTS\REPO\EXTERN\GLM\GTC\CONSTANTS.HPP
C:\USERS\USER\ONEDRIVE\DOCUMENTS\REPO\EXTERN\GLM\EXT\SCALAR_CONSTANTS.HPP
C:\USERS\USER\ONEDRIVE\DOCUMENTS\REPO\EXTERN\GLM\EXT\SCALAR_CONSTANTS.INL
C:\USERS\USER\ONEDRIVE\DOCUMENTS\REPO\EXTERN\GLM\GTC\CONSTANTS.INL
C:\USERS\USER\ONEDRIVE\DOCUMENTS\REPO\EXTERN\GLM\EXT\MATRIX_PROJECTION.INL
C:\USERS\USER\ONEDRIVE\DOCUMENTS\REPO\EXTERN\GLM\EXT\MATRIX_CLIP_SPACE.HPP
C:\USERS\USER\ONEDRIVE\DOCUMENTS\REPO\EXTERN\GLM\EXT\MATRIX_CLIP_SPACE.INL
C:\USERS\USER\ONEDRIVE\DOCUMENTS\REPO\EXTERN\GLM\EXT\MATRIX_TRANSFORM.HPP
C:\USERS\USER\ONEDRIVE\DOCUMENTS\REPO\EXTERN\GLM\EXT\MATRIX_TRANSFORM.INL
C:\USERS\USER\ONEDRIVE\DOCUMENTS\REPO\EXTERN\GLM\GTC\MATRIX_TRANSFORM.INL
C:\USERS\USER\ONEDRIVE\DOCUMENTS\REPO\EXTERN\GLM\GTC\TYPE_PTR.HPP
C:\USERS\USER\ONEDRIVE\DOCUMENTS\REPO\EXTERN\GLM\GTC\QUATERNION.HPP
C:\USERS\USER\ONEDRIVE\DOCUMENTS\REPO\EXTERN\GLM\EXT\VECTOR_RELATIONAL.HPP
C:\USERS\USER\ONEDRIVE\DOCUMENTS\REPO\EXTERN\GLM\EXT\VECTOR_RELATIONAL.INL
C:\USERS\USER\ONEDRIVE\DOCUMENTS\REPO\EXTERN\GLM\EXT\QUATERNION_COMMON.HPP
C:\USERS\USER\ONEDRIVE\DOCUMENTS\REPO\EXTERN\GLM\EXT\QUATERNION_GEOMETRIC.HPP
C:\USERS\USER\ONEDRIVE\DOCUMENTS\REPO\EXTERN\GLM\EXT\QUATERNION_GEOMETRIC.INL
C:\USERS\USER\ONEDRIVE\DOCUMENTS\REPO\EXTERN\GLM\EXT\QUATERNION_COMMON.INL
C:\USERS\USER\ONEDRIVE\DOCUMENTS\REPO\EXTERN\GLM\EXT\QUATERNION_COMMON_SIMD.INL
C:\USERS\USER\ONEDRIVE\DOCUMENTS\REPO\EXTERN\GLM\EXT\QUATERNION_FLOAT.HPP
C:\USERS\USER\ONEDRIVE\DOCUMENTS\REPO\EXTERN\GLM\DETAIL\TYPE_QUAT.HPP
C:\USERS\USER\ONEDRIVE\DOCUMENTS\REPO\EXTERN\GLM\EXT\QUATERNION_RELATIONAL.HPP
C:\USERS\USER\ONEDRIVE\DOCUMENTS\REPO\EXTERN\GLM\EXT\QUATERNION_RELATIONAL.INL
C:\USERS\USER\ONEDRIVE\DOCUMENTS\REPO\EXTERN\GLM\DETAIL\TYPE_QUAT.INL
C:\USERS\USER\ONEDRIVE\DOCUMENTS\REPO\EXTERN\GLM\DETAIL\TYPE_QUAT_SIMD.INL
C:\USERS\USER\ONEDRIVE\DOCUMENTS\REPO\EXTERN\GLM\EXT\QUATERNION_FLOAT_PRECISION.HPP
C:\USERS\USER\ONEDRIVE\DOCUMENTS\REPO\EXTERN\GLM\EXT\QUATERNION_DOUBLE.HPP
C:\USERS\USER\ONEDRIVE\DOCUMENTS\REPO\EXTERN\GLM\EXT\QUATERNION_DOUBLE_PRECISION.HPP
C:\USERS\USER\ONEDRIVE\DOCUMENTS\REPO\EXTERN\GLM\EXT\QUATERNION_TRIGONOMETRIC.HPP
C:\USERS\USER\ONEDRIVE\DOCUMENTS\REPO\EXTERN\GLM\EXT\QUATERNION_TRIGONOMETRIC.INL
C:\USERS\USER\ONEDRIVE\DOCUMENTS\REPO\EXTERN\GLM\EXT\QUATERNION_TRANSFORM.HPP
C:\USERS\USER\ONEDRIVE\DOCUMENTS\REPO\EXTERN\GLM\EXT\QUATERNION_TRANSFORM.INL
C:\USERS\USER\ONEDRIVE\DOCUMENTS\REPO\EXTERN\GLM\GTC\QUATERNION.INL
C:\USERS\USER\ONEDRIVE\DOCUMENTS\REPO\EXTERN\GLM\GTC\EPSILON.HPP
C:\USERS\USER\ONEDRIVE\DOCUMENTS\REPO\EXTERN\GLM\GTC\EPSILON.INL
C:\USERS\USER\ONEDRIVE\DOCUMENTS\REPO\EXTERN\GLM\GTC\QUATERNION_SIMD.INL
C:\USERS\USER\ONEDRIVE\DOCUMENTS\REPO\EXTERN\GLM\GTC\VEC1.HPP
C:\USERS\USER\ONEDRIVE\DOCUMENTS\REPO\EXTERN\GLM\EXT\VECTOR_BOOL1.HPP
C:\USERS\USER\ONEDRIVE\DOCUMENTS\REPO\EXTERN\GLM\EXT\VECTOR_BOOL1_PRECISION.HPP
C:\USERS\USER\ONEDRIVE\DOCUMENTS\REPO\EXTERN\GLM\EXT\VECTOR_FLOAT1.HPP
C:\USERS\USER\ONEDRIVE\DOCUMENTS\REPO\EXTERN\GLM\EXT\VECTOR_FLOAT1_PRECISION.HPP
C:\USERS\USER\ONEDRIVE\DOCUMENTS\REPO\EXTERN\GLM\EXT\VECTOR_DOUBLE1.HPP
C:\USERS\USER\ONEDRIVE\DOCUMENTS\REPO\EXTERN\GLM\EXT\VECTOR_DOUBLE1_PRECISION.HPP
C:\USERS\USER\ONEDRIVE\DOCUMENTS\REPO\EXTERN\GLM\EXT\VECTOR_INT1.HPP
C:\USERS\USER\ONEDRIVE\DOCUMENTS\REPO\EXTERN\GLM\EXT\VECTOR_INT1_PRECISION.HPP
C:\USERS\USER\ONEDRIVE\DOCUMENTS\REPO\EXTERN\GLM\EXT\VECTOR_UINT1.HPP
C:\USERS\USER\ONEDRIVE\DOCUMENTS\REPO\EXTERN\GLM\EXT\VECTOR_UINT1_PRECISION.HPP
C:\USERS\USER\ONEDRIVE\DOCUMENTS\REPO\EXTERN\GLM\GTC\TYPE_PTR.INL
C:\USERS\USER\ONEDRIVE\DOCUMENTS\REPO\SOLUTION\ZBORAVION3D\ZBORAVION3D\SHADER.H
C:\PROGRAM FILES (X86)\MICROSOFT VISUAL STUDIO\2019\COMMUNITY\VC\TOOLS\MSVC\14.23.28105\INCLUDE\STRING
C:\PROGRAM FILES (X86)\MICROSOFT VISUAL STUDIO\2019\COMMUNITY\VC\TOOLS\MSVC\14.23.28105\INCLUDE\XSTRING
C:\PROGRAM FILES (X86)\MICROSOFT VISUAL STUDIO\2019\COMMUNITY\VC\TOOLS\MSVC\14.23.28105\INCLUDE\IOSFWD
C:\PROGRAM FILES (X86)\MICROSOFT VISUAL STUDIO\2019\COMMUNITY\VC\TOOLS\MSVC\14.23.28105\INCLUDE\XMEMORY
C:\PROGRAM FILES (X86)\MICROSOFT VISUAL STUDIO\2019\COMMUNITY\VC\TOOLS\MSVC\14.23.28105\INCLUDE\NEW
C:\PROGRAM FILES (X86)\MICROSOFT VISUAL STUDIO\2019\COMMUNITY\VC\TOOLS\MSVC\14.23.28105\INCLUDE\EXCEPTION
C:\PROGRAM FILES (X86)\MICROSOFT VISUAL STUDIO\2019\COMMUNITY\VC\TOOLS\MSVC\14.23.28105\INCLUDE\VCRUNTIME_EXCEPTION.H
C:\PROGRAM FILES (X86)\MICROSOFT VISUAL STUDIO\2019\COMMUNITY\VC\TOOLS\MSVC\14.23.28105\INCLUDE\EH.H
C:\PROGRAM FILES (X86)\WINDOWS KITS\10\INCLUDE\10.0.18362.0\UCRT\CORECRT_TERMINATE.H
C:\PROGRAM FILES (X86)\MICROSOFT VISUAL STUDIO\2019\COMMUNITY\VC\TOOLS\MSVC\14.23.28105\INCLUDE\XATOMIC.H
C:\PROGRAM FILES (X86)\MICROSOFT VISUAL STUDIO\2019\COMMUNITY\VC\TOOLS\MSVC\14.23.28105\INCLUDE\XUTILITY
C:\PROGRAM FILES (X86)\MICROSOFT VISUAL STUDIO\2019\COMMUNITY\VC\TOOLS\MSVC\14.23.28105\INCLUDE\UTILITY
C:\PROGRAM FILES (X86)\MICROSOFT VISUAL STUDIO\2019\COMMUNITY\VC\TOOLS\MSVC\14.23.28105\INCLUDE\CCTYPE
C:\PROGRAM FILES (X86)\MICROSOFT VISUAL STUDIO\2019\COMMUNITY\VC\TOOLS\MSVC\14.23.28105\INCLUDE\FSTREAM
C:\PROGRAM FILES (X86)\MICROSOFT VISUAL STUDIO\2019\COMMUNITY\VC\TOOLS\MSVC\14.23.28105\INCLUDE\ISTREAM
C:\PROGRAM FILES (X86)\MICROSOFT VISUAL STUDIO\2019\COMMUNITY\VC\TOOLS\MSVC\14.23.28105\INCLUDE\OSTREAM
C:\PROGRAM FILES (X86)\MICROSOFT VISUAL STUDIO\2019\COMMUNITY\VC\TOOLS\MSVC\14.23.28105\INCLUDE\IOS
C:\PROGRAM FILES (X86)\MICROSOFT VISUAL STUDIO\2019\COMMUNITY\VC\TOOLS\MSVC\14.23.28105\INCLUDE\XLOCNUM
C:\PROGRAM FILES (X86)\MICROSOFT VISUAL STUDIO\2019\COMMUNITY\VC\TOOLS\MSVC\14.23.28105\INCLUDE\STREAMBUF
C:\PROGRAM FILES (X86)\MICROSOFT VISUAL STUDIO\2019\COMMUNITY\VC\TOOLS\MSVC\14.23.28105\INCLUDE\XIOSBASE
C:\PROGRAM FILES (X86)\WINDOWS KITS\10\INCLUDE\10.0.18362.0\UCRT\SHARE.H
C:\PROGRAM FILES (X86)\MICROSOFT VISUAL STUDIO\2019\COMMUNITY\VC\TOOLS\MSVC\14.23.28105\INCLUDE\SYSTEM_ERROR
C:\PROGRAM FILES (X86)\MICROSOFT VISUAL STUDIO\2019\COMMUNITY\VC\TOOLS\MSVC\14.23.28105\INCLUDE\CERRNO
C:\PROGRAM FILES (X86)\MICROSOFT VISUAL STUDIO\2019\COMMUNITY\VC\TOOLS\MSVC\14.23.28105\INCLUDE\STDEXCEPT
C:\PROGRAM FILES (X86)\MICROSOFT VISUAL STUDIO\2019\COMMUNITY\VC\TOOLS\MSVC\14.23.28105\INCLUDE\XCALL_ONCE.H
C:\PROGRAM FILES (X86)\MICROSOFT VISUAL STUDIO\2019\COMMUNITY\VC\TOOLS\MSVC\14.23.28105\INCLUDE\XERRC.H
C:\PROGRAM FILES (X86)\MICROSOFT VISUAL STUDIO\2019\COMMUNITY\VC\TOOLS\MSVC\14.23.28105\INCLUDE\XLOCALE
C:\PROGRAM FILES (X86)\MICROSOFT VISUAL STUDIO\2019\COMMUNITY\VC\TOOLS\MSVC\14.23.28105\INCLUDE\MEMORY
C:\PROGRAM FILES (X86)\MICROSOFT VISUAL STUDIO\2019\COMMUNITY\VC\TOOLS\MSVC\14.23.28105\INCLUDE\TYPEINFO
C:\PROGRAM FILES (X86)\MICROSOFT VISUAL STUDIO\2019\COMMUNITY\VC\TOOLS\MSVC\14.23.28105\INCLUDE\VCRUNTIME_TYPEINFO.H
C:\PROGRAM FILES (X86)\MICROSOFT VISUAL STUDIO\2019\COMMUNITY\VC\TOOLS\MSVC\14.23.28105\INCLUDE\XFACET
C:\PROGRAM FILES (X86)\MICROSOFT VISUAL STUDIO\2019\COMMUNITY\VC\TOOLS\MSVC\14.23.28105\INCLUDE\XLOCINFO
C:\PROGRAM FILES (X86)\MICROSOFT VISUAL STUDIO\2019\COMMUNITY\VC\TOOLS\MSVC\14.23.28105\INCLUDE\XLOCINFO.H
C:\PROGRAM FILES (X86)\WINDOWS KITS\10\INCLUDE\10.0.18362.0\UCRT\LOCALE.H
C:\PROGRAM FILES (X86)\MICROSOFT VISUAL STUDIO\2019\COMMUNITY\VC\TOOLS\MSVC\14.23.28105\INCLUDE\SSTREAM
C:\PROGRAM FILES (X86)\MICROSOFT VISUAL STUDIO\2019\COMMUNITY\VC\TOOLS\MSVC\14.23.28105\INCLUDE\IOSTREAM
C:\USERS\USER\ONEDRIVE\DOCUMENTS\REPO\SOLUTION\ZBORAVION3D\ZBORAVION3D\CAMERA.H
C:\PROGRAM FILES (X86)\MICROSOFT VISUAL STUDIO\2019\COMMUNITY\VC\TOOLS\MSVC\14.23.28105\INCLUDE\VECTOR
C:\USERS\USER\ONEDRIVE\DOCUMENTS\REPO\SOLUTION\ZBORAVION3D\ZBORAVION3D\MODEL.H
C:\USERS\USER\ONEDRIVE\DOCUMENTS\REPO\EXTERN\STB\STB_IMAGE.H
C:\USERS\USER\ONEDRIVE\DOCUMENTS\REPO\EXTERN\ASSIMP\INCLUDE\ASSIMP\IMPORTER.HPP
C:\USERS\USER\ONEDRIVE\DOCUMENTS\REPO\EXTERN\ASSIMP\INCLUDE\ASSIMP\TYPES.H
C:\USERS\USER\ONEDRIVE\DOCUMENTS\REPO\EXTERN\ASSIMP\INCLUDE\ASSIMP\DEFS.H
C:\USERS\USER\ONEDRIVE\DOCUMENTS\REPO\EXTERN\ASSIMP\INCLUDE\ASSIMP\CONFIG.H
C:\USERS\USER\ONEDRIVE\DOCUMENTS\REPO\EXTERN\ASSIMP\INCLUDE\ASSIMP\VECTOR3.H
C:\USERS\USER\ONEDRIVE\DOCUMENTS\REPO\EXTERN\ASSIMP\INCLUDE\ASSIMP\VECTOR2.H
C:\USERS\USER\ONEDRIVE\DOCUMENTS\REPO\EXTERN\ASSIMP\INCLUDE\ASSIMP\COMPILER\PUSHPACK1.H
C:\USERS\USER\ONEDRIVE\DOCUMENTS\REPO\EXTERN\ASSIMP\INCLUDE\ASSIMP\COMPILER\POPPACK1.H
C:\USERS\USER\ONEDRIVE\DOCUMENTS\REPO\EXTERN\ASSIMP\INCLUDE\ASSIMP\COLOR4.H
C:\USERS\USER\ONEDRIVE\DOCUMENTS\REPO\EXTERN\ASSIMP\INCLUDE\ASSIMP\MATRIX3X3.H
C:\USERS\USER\ONEDRIVE\DOCUMENTS\REPO\EXTERN\ASSIMP\INCLUDE\ASSIMP\MATRIX4X4.H
C:\USERS\USER\ONEDRIVE\DOCUMENTS\REPO\EXTERN\ASSIMP\INCLUDE\ASSIMP\QUATERNION.H
C:\USERS\USER\ONEDRIVE\DOCUMENTS\REPO\EXTERN\ASSIMP\INCLUDE\ASSIMP\VECTOR2.INL
C:\USERS\USER\ONEDRIVE\DOCUMENTS\REPO\EXTERN\ASSIMP\INCLUDE\ASSIMP\VECTOR3.INL
C:\USERS\USER\ONEDRIVE\DOCUMENTS\REPO\EXTERN\ASSIMP\INCLUDE\ASSIMP\COLOR4.INL
C:\USERS\USER\ONEDRIVE\DOCUMENTS\REPO\EXTERN\ASSIMP\INCLUDE\ASSIMP\QUATERNION.INL
C:\USERS\USER\ONEDRIVE\DOCUMENTS\REPO\EXTERN\ASSIMP\INCLUDE\ASSIMP\MATRIX3X3.INL
C:\PROGRAM FILES (X86)\MICROSOFT VISUAL STUDIO\2019\COMMUNITY\VC\TOOLS\MSVC\14.23.28105\INCLUDE\ALGORITHM
C:\USERS\USER\ONEDRIVE\DOCUMENTS\REPO\EXTERN\ASSIMP\INCLUDE\ASSIMP\MATRIX4X4.INL
C:\USERS\USER\ONEDRIVE\DOCUMENTS\REPO\EXTERN\ASSIMP\INCLUDE\ASSIMP\SCENE.H
C:\USERS\USER\ONEDRIVE\DOCUMENTS\REPO\EXTERN\ASSIMP\INCLUDE\ASSIMP\TEXTURE.H
C:\USERS\USER\ONEDRIVE\DOCUMENTS\REPO\EXTERN\ASSIMP\INCLUDE\ASSIMP\MESH.H
C:\USERS\USER\ONEDRIVE\DOCUMENTS\REPO\EXTERN\ASSIMP\INCLUDE\ASSIMP\LIGHT.H
C:\USERS\USER\ONEDRIVE\DOCUMENTS\REPO\EXTERN\ASSIMP\INCLUDE\ASSIMP\CAMERA.H
C:\USERS\USER\ONEDRIVE\DOCUMENTS\REPO\EXTERN\ASSIMP\INCLUDE\ASSIMP\MATERIAL.H
C:\USERS\USER\ONEDRIVE\DOCUMENTS\REPO\EXTERN\ASSIMP\INCLUDE\ASSIMP\MATERIAL.INL
C:\USERS\USER\ONEDRIVE\DOCUMENTS\REPO\EXTERN\ASSIMP\INCLUDE\ASSIMP\ANIM.H
C:\USERS\USER\ONEDRIVE\DOCUMENTS\REPO\EXTERN\ASSIMP\INCLUDE\ASSIMP\METADATA.H
C:\USERS\USER\ONEDRIVE\DOCUMENTS\REPO\EXTERN\ASSIMP\INCLUDE\ASSIMP\POSTPROCESS.H
C:\USERS\USER\ONEDRIVE\DOCUMENTS\REPO\SOLUTION\ZBORAVION3D\ZBORAVION3D\MESH.H
C:\PROGRAM FILES (X86)\MICROSOFT VISUAL STUDIO\2019\COMMUNITY\VC\TOOLS\MSVC\14.23.28105\INCLUDE\MAP
C:\PROGRAM FILES (X86)\MICROSOFT VISUAL STUDIO\2019\COMMUNITY\VC\TOOLS\MSVC\14.23.28105\INCLUDE\TUPLE
C:\PROGRAM FILES (X86)\MICROSOFT VISUAL STUDIO\2019\COMMUNITY\VC\TOOLS\MSVC\14.23.28105\INCLUDE\XTREE
